{
  "api_id": "af8b199a-0b58-11e8-b939-06755d68f0ca",
  "meta": {
    "limit": 1,
    "next": "https://api.plivo.com/v1/Account/MAXXXXXXXXXXXXXXXXXX/Verification/Address/?limit=1&offset=1",
    "offset": 0,
    "previous": null,
    "total_count": 22
  },
  "objects": [
    {
      "account": "MAXXXXXXXXXXXXXXXXXX",
      "address_line1": "128",
      "address_line2": "RUE DU COMMANDANT GUILBAUD",
      "alias": "test_address",
      "city": "PARIS",
      "country_iso": "FR",
      "document_details": {
        "address_line1": "128",
        "address_line2": "RUE DU COMMANDANT GUILBAUD",
        "city": "PARIS",
        "first_name": "Bruce",
        "last_name": "Wayne",
        "postal_code": "75016",
        "region": "PARIS",
        "salutation": "Mr"
      },
      "first_name": "Bruce",
      "id": "20220771838737",
      "last_name": "Wayne",
      "postal_code": "75016",
      "region": "PARIS",
      "salutation": "Mr",
      "subaccount": null,
      "url": "https://api.plivo.com/v1/Account/MAXXXXXXXXXXXXXXXXXX/Verification/Address/20220771838737/",
      "validation_status": "accepted",
      "verification_status": "pending"
    }
  ]
}
