{
  "api_id": "3c294e0c-0b5a-11e8-9ad8-064c8d7b2d26",
  "meta": {
    "limit": 1,
    "next": "https://api.plivo.com/v1/Account/MAXXXXXXXXXXXXXXXXXX/Verification/Identity/?limit=1&offset=1",
    "offset": 0,
    "previous": null,
    "total_count": 6
  },
  "objects": [
    {
      "account": "MAXXXXXXXXXXXXXXXXXX",
      "alias": null,
      "country_iso": "FR",
      "document_details": {
        "first_name": "Bruce",
        "id_number": "33522",
        "id_type": "passport",
        "last_name": "Wayne",
        "nationality": "FR",
        "salutation": "Mr"
      },
      "first_name": "Bruce",
      "id": "24856289978366",
      "id_number": "33522",
      "id_type": "passport",
      "last_name": "Wayne",
      "nationality": "FR",
      "salutation": "Mr",
      "subaccount": null,
      "url": "https://api.plivo.com/v1/Account/MAXXXXXXXXXXXXXXXXXX/Verification/Identity/24856289978366/",
      "validation_status": "pending",
      "verification_status": "pending"
    }
  ]
}
