{
    "api_id": "95e98e4a-e5a4-11e9-b521-0242ac110003",
    "meta": {
        "limit": 20,
        "next": "/v1/Account/<auth_id>/Media?offset=20&limit=20",
        "offset": 0,
        "previous": "/v1/Account/<auth_id>/Media?offset=0&limit=20",
        "total_count": 44
    },
    "objects": [{
            "content_type": "image/gif",
            "media_id": "91f8f9ce-e236-474f-a2b8-f75d9c35988a",
            "media_url": "http://127.0.0.1:80/media/MAODZKMDFJMJU3MTEYNG/f734eeec-e59f-11e9-89dc-0242ac110003/91f8f9ce-e236-474f-a2b8-f75d9c35988a",
            "message_uuid": "f734eeec-e59f-11e9-89dc-0242ac110003",
            "size": 766424
        },
        {
            "content_type": "image/jpeg",
            "media_id": "455a2f85-acd5-4bb7-9a6a-a7b7341cd592",
            "media_url": "http://127.0.0.1:80/media/MAODZKMDFJMJU3MTEYNG/f734eeec-e59f-11e9-89dc-0242ac110003/455a2f85-acd5-4bb7-9a6a-a7b7341cd592",
            "message_uuid": "f734eeec-e59f-11e9-89dc-0242ac110003",
            "size": 47343
        }
    ]
}
