{
    "api_id": "9e7be464-9ac0-11ea-b531-1094bbeb5c2c",
    "meta": {
        "count": 199,
        "limit": 20,
        "next": "/v1/Account/MAXXXXXXXXXXXXXXXXXX/MultiPartyCall/?limit=20&offset=20",
        "offset": 0,
        "previous": null
    },
    "objects": [
        {
            "billed_amount": null,
            "billed_duration": null,
            "duration": null,
            "end_time": null,
            "friendly_name": "Ban Selaphum",
            "mpc_uuid": "0053d54e-927f-42e1-b397-c99e9cdb284f",
            "participants": "/v1/Account/MAXXXXXXXXXXXXXXXXXX/MultiPartyCall/uuid_0053d54e-927f-42e1-b397-c99e9cdb284f/Participant/",
            "recording": "not-recording",
            "resource_uri": "/v1/Account/MAXXXXXXXXXXXXXXXXXX/MultiPartyCall/uuid_0053d54e-927f-42e1-b397-c99e9cdb284f/",
            "start_time": "2020-05-18 22:02:52+05:30",
            "status": "Active",
            "stay_alone": false,
            "sub_account": "/v1/Account/MAXXXXXXXXXXXXXXXXXX/Subaccount/SAYYYYYYYYYYYYYYYYYY/",
            "termination_cause": null,
            "termination_cause_code": null
        },
        {
            "billed_amount": null,
            "billed_duration": null,
            "duration": null,
            "end_time": null,
            "friendly_name": "Tikrīt",
            "mpc_uuid": "f19859ff-f060-461f-a6e7-948dafe89e76",
            "participants": "/v1/Account/MAXXXXXXXXXXXXXXXXXX/MultiPartyCall/uuid_f19859ff-f060-461f-a6e7-948dafe89e76/Participant/",
            "recording": "not-recording",
            "resource_uri": "/v1/Account/MAXXXXXXXXXXXXXXXXXX/MultiPartyCall/uuid_f19859ff-f060-461f-a6e7-948dafe89e76/",
            "start_time": "2020-05-18 22:02:51+05:30",
            "status": "Initialized",
            "stay_alone": true,
            "sub_account": "/v1/Account/MAXXXXXXXXXXXXXXXXXX/Subaccount/SAYYYYYYYYYYYYYYYYYY/",
            "termination_cause": null,
            "termination_cause_code": null
        },
        {
            "billed_amount": null,
            "billed_duration": null,
            "duration": null,
            "end_time": null,
            "friendly_name": "Alekseyevka",
            "mpc_uuid": "81c4676e-d5ec-4e4c-8e96-ffd36ce931d9",
            "participants": "/v1/Account/MAXXXXXXXXXXXXXXXXXX/MultiPartyCall/uuid_81c4676e-d5ec-4e4c-8e96-ffd36ce931d9/Participant/",
            "recording": "not-recording",
            "resource_uri": "/v1/Account/MAXXXXXXXXXXXXXXXXXX/MultiPartyCall/uuid_81c4676e-d5ec-4e4c-8e96-ffd36ce931d9/",
            "start_time": "2020-05-18 22:02:51+05:30",
            "status": "Active",
            "stay_alone": true,
            "sub_account": "/v1/Account/MAXXXXXXXXXXXXXXXXXX/Subaccount/SAYYYYYYYYYYYYYYYYYY/",
            "termination_cause": null,
            "termination_cause_code": null
        },
        {
            "billed_amount": null,
            "billed_duration": null,
            "duration": null,
            "end_time": null,
            "friendly_name": "Ingenio",
            "mpc_uuid": "abbeb53f-f301-471a-bec7-7a8ac66d0a29",
            "participants": "/v1/Account/MAXXXXXXXXXXXXXXXXXX/MultiPartyCall/uuid_abbeb53f-f301-471a-bec7-7a8ac66d0a29/Participant/",
            "recording": "recording",
            "resource_uri": "/v1/Account/MAXXXXXXXXXXXXXXXXXX/MultiPartyCall/uuid_abbeb53f-f301-471a-bec7-7a8ac66d0a29/",
            "start_time": "2020-05-18 22:02:51+05:30",
            "status": "Active",
            "stay_alone": false,
            "sub_account": null,
            "termination_cause": null,
            "termination_cause_code": null
        },
        {
            "billed_amount": null,
            "billed_duration": null,
            "duration": null,
            "end_time": null,
            "friendly_name": "Marataizes",
            "mpc_uuid": "693256d9-c8d9-4ede-85c3-7f613b8d0b16",
            "participants": "/v1/Account/MAXXXXXXXXXXXXXXXXXX/MultiPartyCall/uuid_693256d9-c8d9-4ede-85c3-7f613b8d0b16/Participant/",
            "recording": "recording",
            "resource_uri": "/v1/Account/MAXXXXXXXXXXXXXXXXXX/MultiPartyCall/uuid_693256d9-c8d9-4ede-85c3-7f613b8d0b16/",
            "start_time": "2020-05-18 22:02:51+05:30",
            "status": "Initialized",
            "stay_alone": true,
            "sub_account": "/v1/Account/MAXXXXXXXXXXXXXXXXXX/Subaccount/SAYYYYYYYYYYYYYYYYYY/",
            "termination_cause": null,
            "termination_cause_code": null
        },
        {
            "billed_amount": null,
            "billed_duration": null,
            "duration": null,
            "end_time": null,
            "friendly_name": "Chamblee",
            "mpc_uuid": "9aad6d16-ed2c-4433-9313-26f8cfc4d99c",
            "participants": "/v1/Account/MAXXXXXXXXXXXXXXXXXX/MultiPartyCall/uuid_9aad6d16-ed2c-4433-9313-26f8cfc4d99c/Participant/",
            "recording": "not-recording",
            "resource_uri": "/v1/Account/MAXXXXXXXXXXXXXXXXXX/MultiPartyCall/uuid_9aad6d16-ed2c-4433-9313-26f8cfc4d99c/",
            "start_time": "2020-05-18 22:02:51+05:30",
            "status": "Active",
            "stay_alone": true,
            "sub_account": null,
            "termination_cause": null,
            "termination_cause_code": null
        },
        {
            "billed_amount": null,
            "billed_duration": null,
            "duration": null,
            "end_time": null,
            "friendly_name": "Sabanalarga",
            "mpc_uuid": "71cda4c5-0847-4399-ae40-4f7775cb7983",
            "participants": "/v1/Account/MAXXXXXXXXXXXXXXXXXX/MultiPartyCall/uuid_71cda4c5-0847-4399-ae40-4f7775cb7983/Participant/",
            "recording": "recording",
            "resource_uri": "/v1/Account/MAXXXXXXXXXXXXXXXXXX/MultiPartyCall/uuid_71cda4c5-0847-4399-ae40-4f7775cb7983/",
            "start_time": "2020-05-18 22:02:50+05:30",
            "status": "Initialized",
            "stay_alone": true,
            "sub_account": "/v1/Account/MAXXXXXXXXXXXXXXXXXX/Subaccount/SAYYYYYYYYYYYYYYYYYY/",
            "termination_cause": null,
            "termination_cause_code": null
        },
        {
            "billed_amount": null,
            "billed_duration": null,
            "duration": null,
            "end_time": null,
            "friendly_name": "Kharagpur",
            "mpc_uuid": "5fa4c4f8-f84b-48e7-abdd-047527ec1ed1",
            "participants": "/v1/Account/MAXXXXXXXXXXXXXXXXXX/MultiPartyCall/uuid_5fa4c4f8-f84b-48e7-abdd-047527ec1ed1/Participant/",
            "recording": "not-recording",
            "resource_uri": "/v1/Account/MAXXXXXXXXXXXXXXXXXX/MultiPartyCall/uuid_5fa4c4f8-f84b-48e7-abdd-047527ec1ed1/",
            "start_time": "2020-05-18 22:02:50+05:30",
            "status": "Active",
            "stay_alone": true,
            "sub_account": null,
            "termination_cause": null,
            "termination_cause_code": null
        },
        {
            "billed_amount": null,
            "billed_duration": null,
            "duration": null,
            "end_time": null,
            "friendly_name": "Mingelchaur",
            "mpc_uuid": "37adf1f2-5c3f-4c85-8913-7d0bceca4437",
            "participants": "/v1/Account/MAXXXXXXXXXXXXXXXXXX/MultiPartyCall/uuid_37adf1f2-5c3f-4c85-8913-7d0bceca4437/Participant/",
            "recording": "recording",
            "resource_uri": "/v1/Account/MAXXXXXXXXXXXXXXXXXX/MultiPartyCall/uuid_37adf1f2-5c3f-4c85-8913-7d0bceca4437/",
            "start_time": "2020-05-18 22:02:50+05:30",
            "status": "Active",
            "stay_alone": false,
            "sub_account": "/v1/Account/MAXXXXXXXXXXXXXXXXXX/Subaccount/SAYYYYYYYYYYYYYYYYYY/",
            "termination_cause": null,
            "termination_cause_code": null
        },
        {
            "billed_amount": null,
            "billed_duration": null,
            "duration": null,
            "end_time": null,
            "friendly_name": "Mount Prospect",
            "mpc_uuid": "c598da73-34d8-4b31-95eb-35c9c56795d3",
            "participants": "/v1/Account/MAXXXXXXXXXXXXXXXXXX/MultiPartyCall/uuid_c598da73-34d8-4b31-95eb-35c9c56795d3/Participant/",
            "recording": "recording",
            "resource_uri": "/v1/Account/MAXXXXXXXXXXXXXXXXXX/MultiPartyCall/uuid_c598da73-34d8-4b31-95eb-35c9c56795d3/",
            "start_time": "2020-05-18 22:02:50+05:30",
            "status": "Initialized",
            "stay_alone": false,
            "sub_account": "/v1/Account/MAXXXXXXXXXXXXXXXXXX/Subaccount/SAYYYYYYYYYYYYYYYYYY/",
            "termination_cause": null,
            "termination_cause_code": null
        },
        {
            "billed_amount": 3.6,
            "billed_duration": 720,
            "duration": 350,
            "end_time": "2020-05-18 22:08:39+05:30",
            "friendly_name": "Östermalm",
            "mpc_uuid": "9ff28173-7759-49c9-9878-63cee796ed9b",
            "participants": "/v1/Account/MAXXXXXXXXXXXXXXXXXX/MultiPartyCall/uuid_9ff28173-7759-49c9-9878-63cee796ed9b/Participant/",
            "recording": "null",
            "resource_uri": "/v1/Account/MAXXXXXXXXXXXXXXXXXX/MultiPartyCall/uuid_9ff28173-7759-49c9-9878-63cee796ed9b/",
            "start_time": "2020-05-18 22:02:49+05:30",
            "status": "Ended",
            "stay_alone": true,
            "sub_account": "/v1/Account/MAXXXXXXXXXXXXXXXXXX/Subaccount/SAWWWWWWWWWWWWWWWWWW/",
            "termination_cause": "No Active Participants",
            "termination_cause_code": 1000
        },
        {
            "billed_amount": 0.3,
            "billed_duration": 60,
            "duration": 10,
            "end_time": "2020-05-18 22:02:59+05:30",
            "friendly_name": "Flagami",
            "mpc_uuid": "b7b18549-6610-4345-808e-e411b1dbffd2",
            "participants": "/v1/Account/MAXXXXXXXXXXXXXXXXXX/MultiPartyCall/uuid_b7b18549-6610-4345-808e-e411b1dbffd2/Participant/",
            "recording": "null",
            "resource_uri": "/v1/Account/MAXXXXXXXXXXXXXXXXXX/MultiPartyCall/uuid_b7b18549-6610-4345-808e-e411b1dbffd2/",
            "start_time": "2020-05-18 22:02:49+05:30",
            "status": "Ended",
            "stay_alone": false,
            "sub_account": "/v1/Account/MAXXXXXXXXXXXXXXXXXX/Subaccount/SAWWWWWWWWWWWWWWWWWW/",
            "termination_cause": "Stay Alone Not Permitted",
            "termination_cause_code": 1010
        },
        {
            "billed_amount": 21.6,
            "billed_duration": 4320,
            "duration": 1400,
            "end_time": "2020-05-18 22:25:09+05:30",
            "friendly_name": "Kamenjane",
            "mpc_uuid": "27a41b56-485f-4d03-a82b-d7aaa5314484",
            "participants": "/v1/Account/MAXXXXXXXXXXXXXXXXXX/MultiPartyCall/uuid_27a41b56-485f-4d03-a82b-d7aaa5314484/Participant/",
            "recording": "not-recording",
            "resource_uri": "/v1/Account/MAXXXXXXXXXXXXXXXXXX/MultiPartyCall/uuid_27a41b56-485f-4d03-a82b-d7aaa5314484/",
            "start_time": "2020-05-18 22:02:49+05:30",
            "status": "Ended",
            "stay_alone": true,
            "sub_account": null,
            "termination_cause": "Max Duration Reached",
            "termination_cause_code": 2000
        },
        {
            "billed_amount": 0.75,
            "billed_duration": 60,
            "duration": 25,
            "end_time": "2020-05-18 22:02:19+05:30",
            "friendly_name": "Mahendranagar",
            "mpc_uuid": "cb1d9e06-ab39-4a58-bcd1-55f45af49f0b",
            "participants": "/v1/Account/MAXXXXXXXXXXXXXXXXXX/MultiPartyCall/uuid_cb1d9e06-ab39-4a58-bcd1-55f45af49f0b/Participant/",
            "recording": "recording",
            "resource_uri": "/v1/Account/MAXXXXXXXXXXXXXXXXXX/MultiPartyCall/uuid_cb1d9e06-ab39-4a58-bcd1-55f45af49f0b/",
            "start_time": "2020-05-18 22:02:49+05:30",
            "status": "Ended",
            "stay_alone": true,
            "sub_account": null,
            "termination_cause": "Hangup API Triggered",
            "termination_cause_code": 3000
        },
        {
            "billed_amount": 4.5,
            "billed_duration": 900,
            "duration": 300,
            "end_time": "2020-05-18 22:07:49+05:30",
            "friendly_name": "Pando",
            "mpc_uuid": "edf05faf-fa46-460e-bf71-cb70b5301966",
            "participants": "/v1/Account/MAXXXXXXXXXXXXXXXXXX/MultiPartyCall/uuid_edf05faf-fa46-460e-bf71-cb70b5301966/Participant/",
            "recording": "recording",
            "resource_uri": "/v1/Account/MAXXXXXXXXXXXXXXXXXX/MultiPartyCall/uuid_edf05faf-fa46-460e-bf71-cb70b5301966/",
            "start_time": "2020-05-18 22:02:49+05:30",
            "status": "Ended",
            "stay_alone": true,
            "sub_account": "/v1/Account/MAXXXXXXXXXXXXXXXXXX/Subaccount/SAZZZZZZZZZZZZZZZZZZ/",
            "termination_cause": "No Active Participants",
            "termination_cause_code": 1000
        },
        {
            "billed_amount": 0.6,
            "billed_duration": 60,
            "duration": 5,
            "end_time": "2020-05-18 22:02:52+05:30",
            "friendly_name": "Ibiá",
            "mpc_uuid": "024e19e4-6275-461f-9edc-0e8d4016eec5",
            "participants": "/v1/Account/MAXXXXXXXXXXXXXXXXXX/MultiPartyCall/uuid_024e19e4-6275-461f-9edc-0e8d4016eec5/Participant/",
            "recording": "recording",
            "resource_uri": "/v1/Account/MAXXXXXXXXXXXXXXXXXX/MultiPartyCall/uuid_024e19e4-6275-461f-9edc-0e8d4016eec5/",
            "start_time": "2020-05-18 22:02:48+05:30",
            "status": "Ended",
            "stay_alone": false,
            "sub_account": null,
            "termination_cause": "Stay Alone Not Permitted",
            "termination_cause_code": 1010
        },
        {
            "billed_amount": 2.36,
            "billed_duration": 60,
            "duration": 47,
            "end_time": "2020-05-18 22:03:35+05:30",
            "friendly_name": "Humen",
            "mpc_uuid": "d228338f-00bd-4ea8-812b-41f46371b1ce",
            "participants": "/v1/Account/MAXXXXXXXXXXXXXXXXXX/MultiPartyCall/uuid_d228338f-00bd-4ea8-812b-41f46371b1ce/Participant/",
            "recording": "recording",
            "resource_uri": "/v1/Account/MAXXXXXXXXXXXXXXXXXX/MultiPartyCall/uuid_d228338f-00bd-4ea8-812b-41f46371b1ce/",
            "start_time": "2020-05-18 22:02:48+05:30",
            "status": "Ended",
            "stay_alone": false,
            "sub_account": "/v1/Account/MAXXXXXXXXXXXXXXXXXX/Subaccount/SAYYYYYYYYYYYYYYYYYY/",
            "termination_cause": "Hangup API Triggered",
            "termination_cause_code": 3000
        },
        {
            "billed_amount": 0.66,
            "billed_duration": 120,
            "duration": 1,
            "end_time": "2020-05-18 22:02:49+05:30",
            "friendly_name": "Dimona",
            "mpc_uuid": "420780be-db2f-4224-b9a8-54a3806b5f0a",
            "participants": "/v1/Account/MAXXXXXXXXXXXXXXXXXX/MultiPartyCall/uuid_420780be-db2f-4224-b9a8-54a3806b5f0a/Participant/",
            "recording": "recording",
            "resource_uri": "/v1/Account/MAXXXXXXXXXXXXXXXXXX/MultiPartyCall/uuid_420780be-db2f-4224-b9a8-54a3806b5f0a/",
            "start_time": "2020-05-18 22:02:48+05:30",
            "status": "Ended",
            "stay_alone": false,
            "sub_account": "/v1/Account/MAXXXXXXXXXXXXXXXXXX/Subaccount/SAYYYYYYYYYYYYYYYYYY/",
            "termination_cause": "Hangup API Triggered",
            "termination_cause_code": 3000
        },
        {
            "billed_amount": 15.0,
            "billed_duration": 3000,
            "duration": 597,
            "end_time": "2020-05-18 22:12:45+05:30",
            "friendly_name": "Gasteiz / Vitoria",
            "mpc_uuid": "44a00402-9c2c-4064-9cab-cce202150e89",
            "participants": "/v1/Account/MAXXXXXXXXXXXXXXXXXX/MultiPartyCall/uuid_44a00402-9c2c-4064-9cab-cce202150e89/Participant/",
            "recording": "not-recording",
            "resource_uri": "/v1/Account/MAXXXXXXXXXXXXXXXXXX/MultiPartyCall/uuid_44a00402-9c2c-4064-9cab-cce202150e89/",
            "start_time": "2020-05-18 22:02:48+05:30",
            "status": "Ended",
            "stay_alone": false,
            "sub_account": "/v1/Account/MAXXXXXXXXXXXXXXXXXX/Subaccount/SAYYYYYYYYYYYYYYYYYY/",
            "termination_cause": "No Active Participants",
            "termination_cause_code": 1000
        },
        {
            "billed_amount": 0.9,
            "billed_duration": 180,
            "duration": 90,
            "end_time": "2020-05-18 22:04:17+05:30",
            "friendly_name": "Shurugwi",
            "mpc_uuid": "7e4a2598-e283-4c65-b0d2-4f10b3ddc4a3",
            "participants": "/v1/Account/MAXXXXXXXXXXXXXXXXXX/MultiPartyCall/uuid_7e4a2598-e283-4c65-b0d2-4f10b3ddc4a3/Participant/",
            "recording": "recording",
            "resource_uri": "/v1/Account/MAXXXXXXXXXXXXXXXXXX/MultiPartyCall/uuid_7e4a2598-e283-4c65-b0d2-4f10b3ddc4a3/",
            "start_time": "2020-05-18 22:02:47+05:30",
            "status": "Ended",
            "stay_alone": true,
            "sub_account": null,
            "termination_cause": "Stay Alone Not Permitted",
            "termination_cause_code": 1010
        }
    ]
}