{
    "api_id": "e44c159e-0a02-11ea-b072-0242ac110007",
    "meta": {
        "limit": 20,
        "next": "/api/v1/account/xxxxxxx/Powerpack?offset=20&limit=20",
        "offset": 0,
        "total_count": 53
    },
    "objects": [
        {
            "application_id": "",
            "application_type": "",
            "created_on": "2019-10-09T11:10:59.666461Z",
            "local_connect": true,
            "name": "test",
            "number_pool": "/v1/Account/xxxxxxxxx/NumberPool/<number_pool_uuid>/",
            "sticky_sender": true,
            "uuid": "<powerpack_uuid>"
        },
        {
            "application_id": "",
            "application_type": "",
            "created_on": "2019-10-09T17:03:31.837944Z",
            "local_connect": false,
            "name": "p23",
            "number_pool": "/v1/Account/xxxxxxxx/NumberPool/<number_pool_uuid>/",
            "sticky_sender": false,
            "uuid": "<powerpack_uuid>"
        },
        {
            "application_id": "",
            "application_type": "",
            "created_on": "2019-10-09T16:54:34.0117Z",
            "local_connect": false,
            "name": "p22",
            "number_pool": "/v1/Account/xxxxxxxx/NumberPool/<number_pool_uuid>/",
            "sticky_sender": false,
            "uuid": "<powerpack_uuid>"
        }
    ]
}
